%YAML 1.1
%TAG !u! tag:unity3d.com,2011:
--- !u!114 &11400000
MonoBehaviour:
  m_ObjectHideFlags: 0
  m_CorrespondingSourceObject: {fileID: 0}
  m_PrefabInstance: {fileID: 0}
  m_PrefabAsset: {fileID: 0}
  m_GameObject: {fileID: 0}
  m_Enabled: 1
  m_EditorHideFlags: 0
  m_Script: {fileID: 11500000, guid: 1911f11f56de6f649b2b319826431939, type: 3}
  m_Name: Jump
  m_EditorClassIdentifier: 
  StateName: Jump
  _actions:
  - {fileID: 11400000, guid: fa74afd761729234f854bf5367421a98, type: 2}
  - {fileID: 11400000, guid: 3afc7c1a6d6a0df4a86596c95f8f0c81, type: 2}
